Interfacing QGIS processing from R
…
---
layout:false

# Result

``` r
zonal_stats <- sf::st_as_sf(zonal_stats_result) |> 
  sf::st_drop_geometry() |> 
  mutate(distance = set_units(distance, "m") |> set_units("km"))

zonal_stats
```

```
## # A tibble: 123 × 8
##    name  distance  angle dem_mean dem_median dem_stdev dem_min dem_max
##    <chr>     [km]  <dbl>    <dbl>      <dbl>     <dbl>   <dbl>   <dbl>
##  1 Marne        0 269.       372.       366.      22.0    344.    412.
##  2 Marne       10 322.       340.       338       21.9    309.    416.
##  3 Marne       20 327.       331.       334.      23.9    287.    382.
##  4 Marne       30 332.       296.       280.      29.5    264.    359.
##  5 Marne       40   5.76     286.       295.      24.3    238.    317.
##  6 Marne       50 358.       269.       254.      45.4    221.    378.
##  7 Marne       60  22.4      235.       220.      32.7    201.    312.
##  8 Marne       70 350.       202.       188.      24.8    183.    306.
##  9 Marne       80 335.       196.       184.      26.9    167.    276 
## 10 Marne       90 334.       182.       184.      19.6    150.    209.
## # ℹ 113 more rows
```
…
